24

C          0.10387        1.34054       -1.61105
C          1.29382        2.12384       -2.18077
C          0.53811        0.50808       -0.39710
C         -0.57312       -0.40936        0.12552
N         -0.98154        2.27726       -1.23763
O          1.39268        3.33979       -2.25378
O          2.27108        1.33154       -2.66324
H         -0.27375        0.69138       -2.40925
H          0.88045        1.17155        0.40838
H          1.40454       -0.10867       -0.66817
H         -1.43979        0.18517        0.43698
C         -0.08930       -1.24897        1.31055
H         -1.19657        2.85454       -2.05395
H         -0.60805        2.94351       -0.55750
H          2.93844        1.96005       -3.01091
H         -0.90731       -1.07252       -0.68167
H          0.23177       -0.58297        2.12140
H          0.78676       -1.83714        1.00955
C         -1.19080       -2.18283        1.81170
N         -0.73050       -2.97307        2.94860
H         -1.50424       -2.86213        1.01158
H         -2.07133       -1.60552        2.11354
H         -0.44157       -2.34969        3.70168
H          0.10211       -3.49864        2.68511
