25

C          1.40736       -0.73182       -0.02142
C          1.58179       -2.10219       -0.22693
C          0.54490       -2.98447        0.09815
C         -0.66108       -2.50390        0.62359
C         -0.82563       -1.13141        0.82518
C          0.20760       -0.23615        0.50952
N          0.72154       -4.42564       -0.11648
O          1.81384       -4.81567       -0.55385
O         -0.23177       -5.17055        0.15439
C          0.01724        1.25084        0.71671
C         -0.51451        1.97353       -0.53226
C         -1.08964        3.33413       -0.12779
O         -0.63453        4.42934       -0.42206
O         -2.21904        3.23876        0.60101
N          0.55589        2.16928       -1.54596
H          2.20997       -0.04663       -0.29027
H          2.52128       -2.45916       -0.64329
H         -1.47622       -3.17827        0.87739
H         -1.76702       -0.76427        1.23037
H          0.96479        1.69823        1.04773
H         -0.66541        1.39419        1.56495
H         -1.32141        1.40381       -1.00831
H         -2.48143        4.17031        0.76217
H          1.22500        2.84777       -1.17298
H          0.14582        2.64610       -2.35181
