16

N         -0.45595       -1.44214        0.76590
C          0.05832       -0.47613       -0.24248
C          1.52010       -0.78694       -0.59245
O          1.84142       -2.08976       -0.40996
O          2.35349       -0.01314       -1.03351
C         -0.08226        0.95803        0.26593
C         -1.38254        1.55243       -0.18644
O         -1.86287        1.49206       -1.30601
O         -1.99617        2.25776        0.78378
H          0.10318       -1.36259        1.61655
H         -0.24125       -2.38064        0.41365
H         -0.50661       -0.63573       -1.16797
H          2.77309       -2.14658       -0.71137
H          0.70607        1.61732       -0.11458
H         -0.01516        0.99643        1.36014
H         -2.81687        2.58495        0.35944
